{
  "object": "LinkedinSearch",
  "items": [
    {
      "type": "PEOPLE",
      "industry": null,
      "id": "ACoAABXyz28BR1yJLMZSCI0MiNTFeMEr07KyAyQ",
      "name": "Anna Lorraine Galura",
      "member_urn": "urn:li:member:368234351",
      "public_identifier": "anna-lorraine-galura-6bb3a2a3",
      "profile_url": "https://www.linkedin.com/in/anna-lorraine-galura-6bb3a2a3?miniProfileUrn=urn%3Ali%3Afs_miniProfile%3AACoAABXyz28BR1yJLMZSCI0MiNTFeMEr07KyAyQ",
      "public_profile_url": "https://www.linkedin.com/in/anna-lorraine-galura-6bb3a2a3?miniProfileUrn=urn%3Ali%3Afs_miniProfile%3AACoAABXyz28BR1yJLMZSCI0MiNTFeMEr07KyAyQ",
      "profile_picture_url": "https://media.licdn.com/dms/image/v2/C5603AQEVdxfzxkMgog/profile-displayphoto-shrink_100_100/profile-displayphoto-shrink_100_100/0/1615978045938?e=1764806400&v=beta&t=5811DgrZfI4pKu4yPiH8Di0zvtlYv59-rw_AKKMSMlk",
      "profile_picture_url_large": "https://media.licdn.com/dms/image/v2/C5603AQEVdxfzxkMgog/profile-displayphoto-shrink_100_100/profile-displayphoto-shrink_100_100/0/1615978045938?e=1764806400&v=beta&t=5811DgrZfI4pKu4yPiH8Di0zvtlYv59-rw_AKKMSMlk",
      "network_distance": "DISTANCE_2",
      "location": "Metro Manila",
      "headline": "Senior Manager for Sales Growth, Growth Marketing, and Customer Experience",
      "shared_connections_count": 19
    },
    {
      "type": "PEOPLE",
      "industry": null,
      "id": "ACoAAAUbXl8BDMLafJQHfnYc2v7x9w-BUsgtAN0",
      "name": "Emma Imperial",
      "member_urn": "urn:li:member:85679711",
      "public_identifier": "emma-imperial-1bb83b24",
      "profile_url": "https://www.linkedin.com/in/emma-imperial-1bb83b24?miniProfileUrn=urn%3Ali%3Afs_miniProfile%3AACoAAAUbXl8BDMLafJQHfnYc2v7x9w-BUsgtAN0",
      "public_profile_url": "https://www.linkedin.com/in/emma-imperial-1bb83b24?miniProfileUrn=urn%3Ali%3Afs_miniProfile%3AACoAAAUbXl8BDMLafJQHfnYc2v7x9w-BUsgtAN0",
      "profile_picture_url": "https://media.licdn.com/dms/image/v2/C5603AQGW2RVLKZsNew/profile-displayphoto-shrink_100_100/profile-displayphoto-shrink_100_100/0/1643931581512?e=1764806400&v=beta&t=6E-duxxb6vKsPEaFtNEK_sENFyadBR90ImqwBlxHrbs",
      "profile_picture_url_large": "https://media.licdn.com/dms/image/v2/C5603AQGW2RVLKZsNew/profile-displayphoto-shrink_100_100/profile-displayphoto-shrink_100_100/0/1643931581512?e=1764806400&v=beta&t=6E-duxxb6vKsPEaFtNEK_sENFyadBR90ImqwBlxHrbs",
      "network_distance": "DISTANCE_2",
      "location": "Metro Manila",
      "headline": "Chair and CEO at Imperial Homes Group of Companies",
      "followers_count": 4000,
      "shared_connections_count": 9
    },
    {
      "type": "PEOPLE",
      "industry": null,
      "id": "ACoAABNqpUYBapqs2dFPL8FC_Duc_nIxnOQCce4",
      "name": "Aileen Kristina Bernardo",
      "member_urn": "urn:li:member:325756230",
      "public_identifier": "aileen-kristina-bernardo-40611891",
      "profile_url": "https://www.linkedin.com/in/aileen-kristina-bernardo-40611891?miniProfileUrn=urn%3Ali%3Afs_miniProfile%3AACoAABNqpUYBapqs2dFPL8FC_Duc_nIxnOQCce4",
      "public_profile_url": "https://www.linkedin.com/in/aileen-kristina-bernardo-40611891?miniProfileUrn=urn%3Ali%3Afs_miniProfile%3AACoAABNqpUYBapqs2dFPL8FC_Duc_nIxnOQCce4",
      "profile_picture_url": "https://media.licdn.com/dms/image/v2/D5603AQHnNqYcDZx41A/profile-displayphoto-shrink_100_100/profile-displayphoto-shrink_100_100/0/1672643877106?e=1764806400&v=beta&t=ljCDlGBcmgkM_rAVgt2uKwh7IsYGuh8Kb4vHHEUGqZc",
      "profile_picture_url_large": "https://media.licdn.com/dms/image/v2/D5603AQHnNqYcDZx41A/profile-displayphoto-shrink_100_100/profile-displayphoto-shrink_100_100/0/1672643877106?e=1764806400&v=beta&t=ljCDlGBcmgkM_rAVgt2uKwh7IsYGuh8Kb4vHHEUGqZc",
      "network_distance": "DISTANCE_2",
      "location": "Metro Manila",
      "headline": "Marketing Manager",
      "shared_connections_count": 9
    },
    {
      "type": "PEOPLE",
      "industry": null,
      "id": "ACoAADaEZdcBDQSZUFmvINSQYC8SYSQcPHcVw3E",
      "name": "Mikaela D.",
      "member_urn": "urn:li:member:914646487",
      "public_identifier": "mikaela-d-387391216",
      "profile_url": "https://www.linkedin.com/in/mikaela-d-387391216?miniProfileUrn=urn%3Ali%3Afs_miniProfile%3AACoAADaEZdcBDQSZUFmvINSQYC8SYSQcPHcVw3E",
      "public_profile_url": "https://www.linkedin.com/in/mikaela-d-387391216?miniProfileUrn=urn%3Ali%3Afs_miniProfile%3AACoAADaEZdcBDQSZUFmvINSQYC8SYSQcPHcVw3E",
      "profile_picture_url": "https://media.licdn.com/dms/image/v2/D5635AQGB1PNXlUagBA/profile-framedphoto-shrink_100_100/B56ZdtDJe3HQAk-/0/1749881231674?e=1764054000&v=beta&t=tiWHpo2NepyNt_aQK59LJ_UoaR5ycacUmtKQNKHepfs",
      "profile_picture_url_large": "https://media.licdn.com/dms/image/v2/D5635AQGB1PNXlUagBA/profile-framedphoto-shrink_100_100/B56ZdtDJe3HQAk-/0/1749881231674?e=1764054000&v=beta&t=tiWHpo2NepyNt_aQK59LJ_UoaR5ycacUmtKQNKHepfs",
      "network_distance": "DISTANCE_2",
      "location": "Philippines",
      "headline": "Senior Influencer Marketing Manager",
      "verified": true
    },
    {
      "type": "PEOPLE",
      "industry": null,
      "id": "ACoAADK9pEEBAClsGR6lAmQqQwPQbX05wAaHazA",
      "name": "Karen Rodriguez",
      "member_urn": "urn:li:member:851289153",
      "public_identifier": "karensanicorodriguez",
      "profile_url": "https://www.linkedin.com/in/karensanicorodriguez?miniProfileUrn=urn%3Ali%3Afs_miniProfile%3AACoAADK9pEEBAClsGR6lAmQqQwPQbX05wAaHazA",
      "public_profile_url": "https://www.linkedin.com/in/karensanicorodriguez?miniProfileUrn=urn%3Ali%3Afs_miniProfile%3AACoAADK9pEEBAClsGR6lAmQqQwPQbX05wAaHazA",
      "profile_picture_url": "https://media.licdn.com/dms/image/v2/C4D03AQEtjGnYBOm_Mg/profile-displayphoto-shrink_100_100/profile-displayphoto-shrink_100_100/0/1654181521195?e=1764806400&v=beta&t=q_9EiqEv0KeqYEslM4kwj2p6BglVJbbMo19Kma_pNR4",
      "profile_picture_url_large": "https://media.licdn.com/dms/image/v2/C4D03AQEtjGnYBOm_Mg/profile-displayphoto-shrink_100_100/profile-displayphoto-shrink_100_100/0/1654181521195?e=1764806400&v=beta&t=q_9EiqEv0KeqYEslM4kwj2p6BglVJbbMo19Kma_pNR4",
      "network_distance": "DISTANCE_2",
      "location": "Philippines",
      "headline": "DevOps Engineer | Software Engineer",
      "verified": true,
      "shared_connections_count": 5
    },
    {
      "type": "PEOPLE",
      "industry": null,
      "id": "ACoAABrvShsBRONEgrpp9jFr9I9l9ivFSOf3DlM",
      "name": "Angeline Licerio",
      "member_urn": "urn:li:member:451889691",
      "public_identifier": "angeline-licerio-2a3406107",
      "profile_url": "https://www.linkedin.com/in/angeline-licerio-2a3406107?miniProfileUrn=urn%3Ali%3Afs_miniProfile%3AACoAABrvShsBRONEgrpp9jFr9I9l9ivFSOf3DlM",
      "public_profile_url": "https://www.linkedin.com/in/angeline-licerio-2a3406107?miniProfileUrn=urn%3Ali%3Afs_miniProfile%3AACoAABrvShsBRONEgrpp9jFr9I9l9ivFSOf3DlM",
      "profile_picture_url": "https://media.licdn.com/dms/image/v2/C5603AQGaZheBBmzByw/profile-displayphoto-shrink_100_100/profile-displayphoto-shrink_100_100/0/1621582428445?e=1764806400&v=beta&t=Zb7Q5rpnaXR6pbnbxaL0CyvkcXCq7esCv-98qwhrSms",
      "profile_picture_url_large": "https://media.licdn.com/dms/image/v2/C5603AQGaZheBBmzByw/profile-displayphoto-shrink_100_100/profile-displayphoto-shrink_100_100/0/1621582428445?e=1764806400&v=beta&t=Zb7Q5rpnaXR6pbnbxaL0CyvkcXCq7esCv-98qwhrSms",
      "network_distance": "DISTANCE_2",
      "location": "Calabarzon, Philippines",
      "headline": "PR and Corporate Communications Officer",
      "verified": true,
      "shared_connections_count": 10
    },
    {
      "type": "PEOPLE",
      "industry": null,
      "id": "ACoAABscFfMBHTs7WpdDONpEEO4PzKlSa3tsZC8",
      "name": "Alyssa Denise Dizon, MBA",
      "member_urn": "urn:li:member:454825459",
      "public_identifier": "alyssa-denise-dizon-mba-2173a1108",
      "profile_url": "https://www.linkedin.com/in/alyssa-denise-dizon-mba-2173a1108?miniProfileUrn=urn%3Ali%3Afs_miniProfile%3AACoAABscFfMBHTs7WpdDONpEEO4PzKlSa3tsZC8",
      "public_profile_url": "https://www.linkedin.com/in/alyssa-denise-dizon-mba-2173a1108?miniProfileUrn=urn%3Ali%3Afs_miniProfile%3AACoAABscFfMBHTs7WpdDONpEEO4PzKlSa3tsZC8",
      "profile_picture_url": "https://media.licdn.com/dms/image/v2/D5603AQGIrs2uApS-Cg/profile-displayphoto-shrink_100_100/B56ZXqyB7UGQAg-/0/1743400739106?e=1764806400&v=beta&t=Csw0deM7XpPhTiNRT_YcZPa9L4SDCQYn5gK6LrevRR4",
      "profile_picture_url_large": "https://media.licdn.com/dms/image/v2/D5603AQGIrs2uApS-Cg/profile-displayphoto-shrink_100_100/B56ZXqyB7UGQAg-/0/1743400739106?e=1764806400&v=beta&t=Csw0deM7XpPhTiNRT_YcZPa9L4SDCQYn5gK6LrevRR4",
      "network_distance": "DISTANCE_2",
      "location": "Metro Manila",
      "headline": "Associate Brand Manager at Galderma Philippines",
      "verified": true,
      "shared_connections_count": 8
    },
    {
      "type": "PEOPLE",
      "industry": null,
      "id": "ACoAAAEjqVsBIZpcH_Fz2VpD8hdW1sFKNj49Rao",
      "name": "Marc Carpio",
      "member_urn": "urn:li:member:19114331",
      "public_identifier": "marc-carpio",
      "profile_url": "https://www.linkedin.com/in/marc-carpio?miniProfileUrn=urn%3Ali%3Afs_miniProfile%3AACoAAAEjqVsBIZpcH_Fz2VpD8hdW1sFKNj49Rao",
      "public_profile_url": "https://www.linkedin.com/in/marc-carpio?miniProfileUrn=urn%3Ali%3Afs_miniProfile%3AACoAAAEjqVsBIZpcH_Fz2VpD8hdW1sFKNj49Rao",
      "profile_picture_url": "https://media.licdn.com/dms/image/v2/D5603AQFBqn2M-zG1oQ/profile-displayphoto-shrink_100_100/profile-displayphoto-shrink_100_100/0/1730383287794?e=1764806400&v=beta&t=Y8BTlr7TzGEw5opBi-slImibMWfEgTWU7Rzb_3LrkIo",
      "profile_picture_url_large": "https://media.licdn.com/dms/image/v2/D5603AQFBqn2M-zG1oQ/profile-displayphoto-shrink_100_100/profile-displayphoto-shrink_100_100/0/1730383287794?e=1764806400&v=beta&t=Y8BTlr7TzGEw5opBi-slImibMWfEgTWU7Rzb_3LrkIo",
      "network_distance": "DISTANCE_2",
      "location": "Metro Manila",
      "headline": "CEO at Cognitif",
      "verified": true,
      "shared_connections_count": 28
    },
    {
      "type": "PEOPLE",
      "industry": null,
      "id": "ACoAACLUhk4BmbCSLk3UjxS-QvAlN5D2PZItjOM",
      "name": "Cristine Joy Cruz",
      "member_urn": "urn:li:member:584353358",
      "public_identifier": "cristinejoycruz",
      "profile_url": "https://www.linkedin.com/in/cristinejoycruz?miniProfileUrn=urn%3Ali%3Afs_miniProfile%3AACoAACLUhk4BmbCSLk3UjxS-QvAlN5D2PZItjOM",
      "public_profile_url": "https://www.linkedin.com/in/cristinejoycruz?miniProfileUrn=urn%3Ali%3Afs_miniProfile%3AACoAACLUhk4BmbCSLk3UjxS-QvAlN5D2PZItjOM",
      "profile_picture_url": "https://media.licdn.com/dms/image/v2/D5603AQEyzxPwhNrSLA/profile-displayphoto-scale_100_100/B56ZfkoSGpGQAc-/0/1751887455644?e=1764806400&v=beta&t=weTsmYPDCNjmcoUvpZmiL3lrAOv5wd9A31VRnlKK8lA",
      "profile_picture_url_large": "https://media.licdn.com/dms/image/v2/D5603AQEyzxPwhNrSLA/profile-displayphoto-scale_100_100/B56ZfkoSGpGQAc-/0/1751887455644?e=1764806400&v=beta&t=weTsmYPDCNjmcoUvpZmiL3lrAOv5wd9A31VRnlKK8lA",
      "network_distance": "DISTANCE_2",
      "location": "Metro Cebu",
      "headline": "Group Marketing Manager | Strategic Marketing | Brand Management",
      "shared_connections_count": 4
    },
    {
      "type": "PEOPLE",
      "industry": null,
      "id": "ACoAACISPdQBZjGYdZi0yEKVDHNmedq2csrYd-8",
      "name": "Micah Viado",
      "member_urn": "urn:li:member:571620820",
      "public_identifier": "micahviado",
      "profile_url": "https://www.linkedin.com/in/micahviado?miniProfileUrn=urn%3Ali%3Afs_miniProfile%3AACoAACISPdQBZjGYdZi0yEKVDHNmedq2csrYd-8",
      "public_profile_url": "https://www.linkedin.com/in/micahviado?miniProfileUrn=urn%3Ali%3Afs_miniProfile%3AACoAACISPdQBZjGYdZi0yEKVDHNmedq2csrYd-8",
      "profile_picture_url": "https://media.licdn.com/dms/image/v2/D5635AQGC7nl_Pfg6gg/profile-framedphoto-shrink_100_100/B56ZqQ7.JHJwAk-/0/1763368231740?e=1764054000&v=beta&t=NYRp86sZpdPAorJmJzXbPSYXK37-YsUVto36tWMt0eE",
      "profile_picture_url_large": "https://media.licdn.com/dms/image/v2/D5635AQGC7nl_Pfg6gg/profile-framedphoto-shrink_100_100/B56ZqQ7.JHJwAk-/0/1763368231740?e=1764054000&v=beta&t=NYRp86sZpdPAorJmJzXbPSYXK37-YsUVto36tWMt0eE",
      "network_distance": "DISTANCE_2",
      "location": "Northern Mindanao, Philippines",
      "headline": "Recruitment & Talent Acquisition",
      "verified": true,
      "shared_connections_count": 35
    },
    {
      "type": "PEOPLE",
      "industry": null,
      "id": "ACoAACKFtlsBIQ2HgVPkyVhUyaOQCRmi6_61UeU",
      "name": "Sharah Ibrahim",
      "member_urn": "urn:li:member:579188315",
      "public_identifier": "sharah-ibrahim-50bb76141",
      "profile_url": "https://www.linkedin.com/in/sharah-ibrahim-50bb76141?miniProfileUrn=urn%3Ali%3Afs_miniProfile%3AACoAACKFtlsBIQ2HgVPkyVhUyaOQCRmi6_61UeU",
      "public_profile_url": "https://www.linkedin.com/in/sharah-ibrahim-50bb76141?miniProfileUrn=urn%3Ali%3Afs_miniProfile%3AACoAACKFtlsBIQ2HgVPkyVhUyaOQCRmi6_61UeU",
      "profile_picture_url": "https://media.licdn.com/dms/image/v2/D5603AQEwdsJk0Yuszw/profile-displayphoto-shrink_100_100/profile-displayphoto-shrink_100_100/0/1727296149181?e=1764806400&v=beta&t=rgl2kS7BIsxliitYyzL6gh-wfzeaRzLiqEo7TTqXSII",
      "profile_picture_url_large": "https://media.licdn.com/dms/image/v2/D5603AQEwdsJk0Yuszw/profile-displayphoto-shrink_100_100/profile-displayphoto-shrink_100_100/0/1727296149181?e=1764806400&v=beta&t=rgl2kS7BIsxliitYyzL6gh-wfzeaRzLiqEo7TTqXSII",
      "network_distance": "DISTANCE_2",
      "location": "Metro Manila",
      "headline": "Journalist/Virtual Assistant",
      "verified": true
    },
    {
      "type": "PEOPLE",
      "industry": null,
      "id": "ACoAACLl0wMB4kohJ0SYv7LRd9ixnrEiidBdaOc",
      "name": "BJ Russ Dy",
      "member_urn": "urn:li:member:585487107",
      "public_identifier": "bj-russ-dy-6830b3144",
      "profile_url": "https://www.linkedin.com/in/bj-russ-dy-6830b3144?miniProfileUrn=urn%3Ali%3Afs_miniProfile%3AACoAACLl0wMB4kohJ0SYv7LRd9ixnrEiidBdaOc",
      "public_profile_url": "https://www.linkedin.com/in/bj-russ-dy-6830b3144?miniProfileUrn=urn%3Ali%3Afs_miniProfile%3AACoAACLl0wMB4kohJ0SYv7LRd9ixnrEiidBdaOc",
      "profile_picture_url": "https://media.licdn.com/dms/image/v2/C5603AQGTDH6Rqjsg5g/profile-displayphoto-shrink_100_100/profile-displayphoto-shrink_100_100/0/1604243238335?e=1764806400&v=beta&t=654s06_QEAgWddZQ6a4SRdghoj6yeWdslXjo_KFOfv4",
      "profile_picture_url_large": "https://media.licdn.com/dms/image/v2/C5603AQGTDH6Rqjsg5g/profile-displayphoto-shrink_100_100/profile-displayphoto-shrink_100_100/0/1604243238335?e=1764806400&v=beta&t=654s06_QEAgWddZQ6a4SRdghoj6yeWdslXjo_KFOfv4",
      "network_distance": "DISTANCE_2",
      "location": "Metro Manila",
      "headline": "Brand Manager at Haleon",
      "verified": true,
      "shared_connections_count": 8
    },
    {
      "type": "PEOPLE",
      "industry": null,
      "id": "ACoAACErUd8BlPfpLVSw2xdwpJ0bohcuSJrzRIE",
      "name": "Maria Cecilia Yñiguez",
      "member_urn": "urn:li:member:556487135",
      "public_identifier": "maria-cecilia-y%C3%B1iguez-1bb449136",
      "profile_url": "https://www.linkedin.com/in/maria-cecilia-y%C3%B1iguez-1bb449136?miniProfileUrn=urn%3Ali%3Afs_miniProfile%3AACoAACErUd8BlPfpLVSw2xdwpJ0bohcuSJrzRIE",
      "public_profile_url": "https://www.linkedin.com/in/maria-cecilia-y%C3%B1iguez-1bb449136?miniProfileUrn=urn%3Ali%3Afs_miniProfile%3AACoAACErUd8BlPfpLVSw2xdwpJ0bohcuSJrzRIE",
      "profile_picture_url": "https://media.licdn.com/dms/image/v2/C4D03AQFKZdxT6XACWw/profile-displayphoto-shrink_100_100/profile-displayphoto-shrink_100_100/0/1517396953984?e=1764806400&v=beta&t=okhrKHdXJnqN1jET2__f_w8BJ8CM5mkFHJq6elwCwx8",
      "profile_picture_url_large": "https://media.licdn.com/dms/image/v2/C4D03AQFKZdxT6XACWw/profile-displayphoto-shrink_100_100/profile-displayphoto-shrink_100_100/0/1517396953984?e=1764806400&v=beta&t=okhrKHdXJnqN1jET2__f_w8BJ8CM5mkFHJq6elwCwx8",
      "network_distance": "DISTANCE_2",
      "location": "Metro Manila",
      "headline": "Open to New Opportunities",
      "shared_connections_count": 21
    },
    {
      "type": "PEOPLE",
      "industry": null,
      "id": "ACoAAB9sNM4BvtqmSf69zO9FCY9it1Dlncd1eJw",
      "name": "Nicholai Belgica",
      "member_urn": "urn:li:member:527185102",
      "public_identifier": "nicholaibelgica",
      "profile_url": "https://www.linkedin.com/in/nicholaibelgica?miniProfileUrn=urn%3Ali%3Afs_miniProfile%3AACoAAB9sNM4BvtqmSf69zO9FCY9it1Dlncd1eJw",
      "public_profile_url": "https://www.linkedin.com/in/nicholaibelgica?miniProfileUrn=urn%3Ali%3Afs_miniProfile%3AACoAAB9sNM4BvtqmSf69zO9FCY9it1Dlncd1eJw",
      "profile_picture_url": "https://media.licdn.com/dms/image/v2/D5603AQFFi03Yx5H-xg/profile-displayphoto-shrink_100_100/B56ZXsfRGsGsAY-/0/1743429376591?e=1764806400&v=beta&t=oaBM8hd59-aZ_-cpzcxlKdugQrYvs7x4UigiCqHvuNU",
      "profile_picture_url_large": "https://media.licdn.com/dms/image/v2/D5603AQFFi03Yx5H-xg/profile-displayphoto-shrink_100_100/B56ZXsfRGsGsAY-/0/1743429376591?e=1764806400&v=beta&t=oaBM8hd59-aZ_-cpzcxlKdugQrYvs7x4UigiCqHvuNU",
      "network_distance": "DISTANCE_2",
      "location": "Metro Manila",
      "headline": "Marketing Manager",
      "shared_connections_count": 10
    },
    {
      "type": "PEOPLE",
      "industry": null,
      "id": "ACoAABPT4rYB556POU7L2qSknM9vfdYQOkzjq9s",
      "name": "Joanne Loise Tobias",
      "member_urn": "urn:li:member:332653238",
      "public_identifier": "joanne-loise-tobias-7b24a393",
      "profile_url": "https://www.linkedin.com/in/joanne-loise-tobias-7b24a393?miniProfileUrn=urn%3Ali%3Afs_miniProfile%3AACoAABPT4rYB556POU7L2qSknM9vfdYQOkzjq9s",
      "public_profile_url": "https://www.linkedin.com/in/joanne-loise-tobias-7b24a393?miniProfileUrn=urn%3Ali%3Afs_miniProfile%3AACoAABPT4rYB556POU7L2qSknM9vfdYQOkzjq9s",
      "profile_picture_url": "https://media.licdn.com/dms/image/v2/D5603AQFVYupvS9vpnA/profile-displayphoto-shrink_100_100/profile-displayphoto-shrink_100_100/0/1720628294876?e=1764806400&v=beta&t=LqTrnteifP-773EvnVONWAbQ1kKY4QmClFzBJ7MgEfA",
      "profile_picture_url_large": "https://media.licdn.com/dms/image/v2/D5603AQFVYupvS9vpnA/profile-displayphoto-shrink_100_100/profile-displayphoto-shrink_100_100/0/1720628294876?e=1764806400&v=beta&t=LqTrnteifP-773EvnVONWAbQ1kKY4QmClFzBJ7MgEfA",
      "network_distance": "DISTANCE_2",
      "location": "Metro Manila",
      "headline": "Teacher and Entrepreneur",
      "shared_connections_count": 100
    },
    {
      "type": "PEOPLE",
      "industry": null,
      "id": "ACoAADroQnMBs4h2se5fRNf6wXT5XAwp42zHCwQ",
      "name": "Donna Plaza",
      "member_urn": "urn:li:member:988299891",
      "public_identifier": "donna-plaza-983b90236",
      "profile_url": "https://www.linkedin.com/in/donna-plaza-983b90236?miniProfileUrn=urn%3Ali%3Afs_miniProfile%3AACoAADroQnMBs4h2se5fRNf6wXT5XAwp42zHCwQ",
      "public_profile_url": "https://www.linkedin.com/in/donna-plaza-983b90236?miniProfileUrn=urn%3Ali%3Afs_miniProfile%3AACoAADroQnMBs4h2se5fRNf6wXT5XAwp42zHCwQ",
      "profile_picture_url": "https://media.licdn.com/dms/image/v2/D5603AQH8aLY0Yp7VjQ/profile-displayphoto-shrink_100_100/profile-displayphoto-shrink_100_100/0/1712053327261?e=1764806400&v=beta&t=9Pe0Z08mnB9Uh9QfFlma-k4yodHIjLhSlvztM9uFYEQ",
      "profile_picture_url_large": "https://media.licdn.com/dms/image/v2/D5603AQH8aLY0Yp7VjQ/profile-displayphoto-shrink_100_100/profile-displayphoto-shrink_100_100/0/1712053327261?e=1764806400&v=beta&t=9Pe0Z08mnB9Uh9QfFlma-k4yodHIjLhSlvztM9uFYEQ",
      "network_distance": "DISTANCE_2",
      "location": "San Jose del Monte",
      "headline": "Amazon Advertising Specialist",
      "shared_connections_count": 1
    },
    {
      "type": "PEOPLE",
      "industry": null,
      "id": "ACoAABrCmyUBXmqiKdDnV8eop6_sXrRlrxEJ5FM",
      "name": "Stefhanie Mae Medina",
      "member_urn": "urn:li:member:448961317",
      "public_identifier": "stefhanie-mae-medina-6b1433106",
      "profile_url": "https://www.linkedin.com/in/stefhanie-mae-medina-6b1433106?miniProfileUrn=urn%3Ali%3Afs_miniProfile%3AACoAABrCmyUBXmqiKdDnV8eop6_sXrRlrxEJ5FM",
      "public_profile_url": "https://www.linkedin.com/in/stefhanie-mae-medina-6b1433106?miniProfileUrn=urn%3Ali%3Afs_miniProfile%3AACoAABrCmyUBXmqiKdDnV8eop6_sXrRlrxEJ5FM",
      "profile_picture_url": "https://media.licdn.com/dms/image/v2/D5603AQHLgkXeLNt_dQ/profile-displayphoto-shrink_100_100/profile-displayphoto-shrink_100_100/0/1730609982023?e=1764806400&v=beta&t=0mABAdjX0p7dqaoLFZSU4qywuRVmHSHa0aFeLKnqt18",
      "profile_picture_url_large": "https://media.licdn.com/dms/image/v2/D5603AQHLgkXeLNt_dQ/profile-displayphoto-shrink_100_100/profile-displayphoto-shrink_100_100/0/1730609982023?e=1764806400&v=beta&t=0mABAdjX0p7dqaoLFZSU4qywuRVmHSHa0aFeLKnqt18",
      "network_distance": "DISTANCE_2",
      "location": "Calabarzon, Philippines",
      "headline": "Assistant Marketing Manager at Watsons Philippines | Ex-Suyen | Ex-Inquirer",
      "shared_connections_count": 12
    },
    {
      "type": "PEOPLE",
      "industry": null,
      "id": "ACoAACP228IBcpauUPCaaTEnPuOub1Sq_J5SXDQ",
      "name": "Ron Monsanto",
      "member_urn": "urn:li:member:603380674",
      "public_identifier": "ron-monsanto-76a0a214a",
      "profile_url": "https://www.linkedin.com/in/ron-monsanto-76a0a214a?miniProfileUrn=urn%3Ali%3Afs_miniProfile%3AACoAACP228IBcpauUPCaaTEnPuOub1Sq_J5SXDQ",
      "public_profile_url": "https://www.linkedin.com/in/ron-monsanto-76a0a214a?miniProfileUrn=urn%3Ali%3Afs_miniProfile%3AACoAACP228IBcpauUPCaaTEnPuOub1Sq_J5SXDQ",
      "profile_picture_url": "https://media.licdn.com/dms/image/v2/D5603AQEjTkEPrIUhTQ/profile-displayphoto-shrink_100_100/profile-displayphoto-shrink_100_100/0/1730940887502?e=1764806400&v=beta&t=r2f82hBdrnl2TRRUPmAr095Z7OAYLB3FZwFHUyClSBc",
      "profile_picture_url_large": "https://media.licdn.com/dms/image/v2/D5603AQEjTkEPrIUhTQ/profile-displayphoto-shrink_100_100/profile-displayphoto-shrink_100_100/0/1730940887502?e=1764806400&v=beta&t=r2f82hBdrnl2TRRUPmAr095Z7OAYLB3FZwFHUyClSBc",
      "network_distance": "DISTANCE_2",
      "location": "Metro Manila",
      "headline": "Director of Operations",
      "verified": true,
      "shared_connections_count": 10
    },
    {
      "type": "PEOPLE",
      "industry": null,
      "id": "ACoAAA25jswBn0ONdHo-vAlMJrxRtJFfjn0vf5Q",
      "name": "Kurt Adrian Santiago",
      "member_urn": "urn:li:member:230264524",
      "public_identifier": "kurt-adrian-santiago-b2414665",
      "profile_url": "https://www.linkedin.com/in/kurt-adrian-santiago-b2414665?miniProfileUrn=urn%3Ali%3Afs_miniProfile%3AACoAAA25jswBn0ONdHo-vAlMJrxRtJFfjn0vf5Q",
      "public_profile_url": "https://www.linkedin.com/in/kurt-adrian-santiago-b2414665?miniProfileUrn=urn%3Ali%3Afs_miniProfile%3AACoAAA25jswBn0ONdHo-vAlMJrxRtJFfjn0vf5Q",
      "profile_picture_url": "https://media.licdn.com/dms/image/v2/D4E03AQGtHlEw0odBhA/profile-displayphoto-scale_100_100/B4EZoMj9C5IQAo-/0/1761147345120?e=1764806400&v=beta&t=e20IKdoHfO4QfU4KXR6jG7sCK6KRklfRX0RhmFCIE8U",
      "profile_picture_url_large": "https://media.licdn.com/dms/image/v2/D4E03AQGtHlEw0odBhA/profile-displayphoto-scale_100_100/B4EZoMj9C5IQAo-/0/1761147345120?e=1764806400&v=beta&t=e20IKdoHfO4QfU4KXR6jG7sCK6KRklfRX0RhmFCIE8U",
      "network_distance": "DISTANCE_2",
      "location": "Metro Manila",
      "headline": "Asst. Vice President - Marketing at Nestlé",
      "verified": true,
      "shared_connections_count": 6
    },
    {
      "type": "PEOPLE",
      "industry": null,
      "id": "ACoAAAKFBXABJpB_8lOCk04UVdoCQVRRaHmlmyI",
      "name": "Catherine Sollano - Cusi",
      "member_urn": "urn:li:member:42272112",
      "public_identifier": "catherine-s-cusi",
      "profile_url": "https://www.linkedin.com/in/catherine-s-cusi?miniProfileUrn=urn%3Ali%3Afs_miniProfile%3AACoAAAKFBXABJpB_8lOCk04UVdoCQVRRaHmlmyI",
      "public_profile_url": "https://www.linkedin.com/in/catherine-s-cusi?miniProfileUrn=urn%3Ali%3Afs_miniProfile%3AACoAAAKFBXABJpB_8lOCk04UVdoCQVRRaHmlmyI",
      "profile_picture_url": "https://media.licdn.com/dms/image/v2/D5603AQE7lRn4c9I28g/profile-displayphoto-scale_100_100/B56ZnFjTVdJYAc-/0/1759955990582?e=1764806400&v=beta&t=aESjAj7dwc1SVMMMKS9mJivrtrNHY5fYSwR0UHmx0ko",
      "profile_picture_url_large": "https://media.licdn.com/dms/image/v2/D5603AQE7lRn4c9I28g/profile-displayphoto-scale_100_100/B56ZnFjTVdJYAc-/0/1759955990582?e=1764806400&v=beta&t=aESjAj7dwc1SVMMMKS9mJivrtrNHY5fYSwR0UHmx0ko",
      "network_distance": "DISTANCE_2",
      "location": "Metro Manila",
      "headline": "President / Owner at Aqua Technologies Inc",
      "premium": true,
      "shared_connections_count": 12
    }
  ],
  "config": {
    "params": {
      "api": "classic",
      "category": "people",
      "network_distance": [
        1,
        2
      ],
      "profile_language": [
        "en"
      ]
    }
  },
  "paging": {
    "start": 0,
    "page_count": 20,
    "total_count": 1000
  },
  "cursor": "eyJhY2NvdW50X2lkIjoiYXJvaXdPZVFRbzJTOF8tRnFManpOdyIsImxpbWl0IjoyMCwic3RhcnQiOjIwLCJwYXJhbXMiOnsiYXBpIjoiY2xhc3NpYyIsImNhdGVnb3J5IjoicGVvcGxlIiwibmV0d29ya19kaXN0YW5jZSI6WzEsMl0sInByb2ZpbGVfbGFuZ3VhZ2UiOlsiZW4iXX19"
}